{"data":[{"id":"406raedy7lbxddrjs","name":"น้องลูกแพร","created_at":"2022-12-21T08:05:12.000Z","area":"พหลโยธิน62 คลอง2 ลำลูกกา","sex":"female","age":20,"price":1300,"verify_image_status":1,"vaccine_covid_status":null,"province":"ปทุมธานี","district":"ลำลูกกา","images":["https://api.fiwfans.com/image_sideline/406raedy7lbxddrjo.jpg","https://api.fiwfans.com/image_sideline/406raedy7lbxddrjp.jpg","https://api.fiwfans.com/image_sideline/406raedy7lbxddrjq.jpg","https://api.fiwfans.com/image_sideline/406raedy7lbxddrjr.jpg"],"keep":false,"keep_id":null},{"id":"406rae3gdl8l3e5ax","name":"เหมยลี่ ","created_at":"2022-09-28T03:53:13.000Z","area":"📌พิกัด งามวงศ์วาน 23 แยก 5 นนทบุรี","sex":"female","age":23,"price":1000,"verify_image_status":null,"vaccine_covid_status":null,"province":"นนทบุรี","district":"เมืองนนทบุรี","images":["https://api.fiwfans.com/image_sideline/406rae2gjlb95sfzc.jpg","https://api.fiwfans.com/image_sideline/406rae5qmle84298o.jpg","https://api.fiwfans.com/image_sideline/406rae5frlbrwx040.jpg","https://api.fiwfans.com/image_sideline/406raecnhlaz9vtqi.jpg","https://api.fiwfans.com/image_sideline/406rae5p3le841yhb.jpg","https://api.fiwfans.com/image_sideline/406rae5qgle84254n.jpg"],"keep":false,"keep_id":null},{"id":"406rad3gnkqkn0bcy","name":"puifai088","created_at":"2021-07-01T08:19:52.000Z","area":"บางนากิโล18 & ลาดกระบัง54&บางโฉลง&บางพลี","sex":"female","age":40,"price":1300,"verify_image_status":1,"vaccine_covid_status":1,"province":"กรุงเทพมหานคร","district":"เขตลาดกระบัง","images":["https://api.fiwfans.com/image_sideline/406rae7oxl59caslj.jpg","https://api.fiwfans.com/image_sideline/406rae76gl59cd1q7.jpg","https://api.fiwfans.com/image_sideline/406rae7oxl59cef3l.jpg","https://api.fiwfans.com/image_sideline/406rae76gl59cepa9.jpg","https://api.fiwfans.com/image_sideline/406rae76gl59cg7ww.jpg","https://api.fiwfans.com/image_sideline/406raebgil5wjnrcj.jpg"],"keep":false,"keep_id":null},{"id":"406rae8hklccez2dg","name":"ลิตเติ้ล","created_at":"2022-12-31T20:46:18.000Z","area":"จรัญสนิทวงศ์","sex":"female","age":24,"price":900,"verify_image_status":1,"vaccine_covid_status":null,"province":"กรุงเทพมหานคร","district":"เขตบางกอกน้อย","images":["https://api.fiwfans.com/image_sideline/406rae8hklccez2df.jpg","https://api.fiwfans.com/image_sideline/406rae8hklccez2dd.jpg","https://api.fiwfans.com/image_sideline/406rae8hklccez2dc.jpg","https://api.fiwfans.com/image_sideline/406rae8hklccez2de.jpg"],"keep":false,"keep_id":null},{"id":"406rae9fzl6d6mnbr","name":"น้องเฌอcg","created_at":"2022-08-03T05:42:14.000Z","area":"ลาดพร้าว-วังหิน","sex":"female","age":23,"price":1300,"verify_image_status":1,"vaccine_covid_status":1,"province":"กรุงเทพมหานคร","district":"เขตลาดพร้าว","images":["https://api.fiwfans.com/image_sideline/406rae24zl777s6j7.jpg","https://api.fiwfans.com/image_sideline/406rae3eyl6qfgfcn.jpg","https://api.fiwfans.com/image_sideline/406rae9fzl6d6mnbn.jpg","https://api.fiwfans.com/image_sideline/406rae9fzl6d6mnbo.jpg","https://api.fiwfans.com/image_sideline/406raewtlaaxgn58.jpg"],"keep":false,"keep_id":null},{"id":"406raei03l06o1vah","name":"แพรแพร","created_at":"2022-02-28T12:17:21.000Z","area":"ลาดพร้าว130,รามคำแหง81","sex":"female","age":27,"price":1000,"verify_image_status":1,"vaccine_covid_status":null,"province":"กรุงเทพมหานคร","district":"เขตลาดพร้าว","images":["https://api.fiwfans.com/image_sideline/406raehaeletrn6y3.jpg","https://api.fiwfans.com/image_sideline/406raegn9letrnsdz.jpg","https://api.fiwfans.com/image_sideline/406rae2mcl4nm8xc2.jpg","https://api.fiwfans.com/image_sideline/406rae2mol4nm916p.jpg","https://api.fiwfans.com/image_sideline/406raegn9letrmo5e.jpg"],"keep":false,"keep_id":null},{"id":"406raea77laxkmuri","name":"🖤น้องญาญ่า🖤","created_at":"2022-11-26T06:48:31.000Z","area":"พระราม3","sex":"female","age":25,"price":1200,"verify_image_status":1,"vaccine_covid_status":null,"province":"กรุงเทพมหานคร","district":"เขตยานนาวา","images":["https://api.fiwfans.com/image_sideline/406raea77laxkmurh.jpg","https://api.fiwfans.com/image_sideline/406raea77laxkmurf.jpg","https://api.fiwfans.com/image_sideline/406raea77laxkmure.jpg","https://api.fiwfans.com/image_sideline/406rae83ulf45pq6r.jpg","https://api.fiwfans.com/image_sideline/406raea77laxkmurg.jpg"],"keep":false,"keep_id":null},{"id":"406raei6sl6j8cw1q","name":"ฟลอเรนซ์ ลูกครึ่งเยอรมัน (ไลน์ใหม่) B2B จูบแลกยับ จัดโปร ","created_at":"2022-08-07T11:17:15.000Z","area":"รัชดา 17","sex":"female","age":27,"price":1000,"verify_image_status":1,"vaccine_covid_status":1,"province":"กรุงเทพมหานคร","district":"เขตดินแดง","images":["https://api.fiwfans.com/image_sideline/406raekw5l8g8283m.jpg","https://api.fiwfans.com/image_sideline/406raekw5l8g82dcu.jpg","https://api.fiwfans.com/image_sideline/406raelcfl8g82hkl.jpg","https://api.fiwfans.com/image_sideline/406raekw5l8g82kko.jpg"],"keep":false,"keep_id":null},{"id":"406raeh60lf9znqt3","name":"ฟรองดู SG นศ.ของแท้ นม38Dของแท้/ขี้อ้อน+บู๊","created_at":"2023-03-15T18:01:11.000Z","area":"Btsสนามเป้า ","sex":"female","age":21,"price":1500,"verify_image_status":1,"vaccine_covid_status":null,"province":"กรุงเทพมหานคร","district":"เขตพญาไท","images":["https://api.fiwfans.com/image_sideline/406raeim1lfar3uof.jpg","https://api.fiwfans.com/image_sideline/406raeh60lf9znqt0.jpg","https://api.fiwfans.com/image_sideline/406raeh60lf9znqt1.jpg","https://api.fiwfans.com/image_sideline/406raeh60lf9znqt2.jpg"],"keep":false,"keep_id":null},{"id":"406rae27yl77d54au","name":"น้องใบบัว ","created_at":"2022-08-24T08:37:39.000Z","area":" เกษรนวมินทร์-ลาดพร้าว","sex":"female","age":25,"price":1000,"verify_image_status":1,"vaccine_covid_status":null,"province":"กรุงเทพมหานคร","district":"เขตบึงกุ่ม","images":["https://api.fiwfans.com/image_sideline/406raeigwlefnt4e9.jpg","https://api.fiwfans.com/image_sideline/406raehtbldjjmk54.jpg","https://api.fiwfans.com/image_sideline/406rae7djlfgor9az.jpg","https://api.fiwfans.com/image_sideline/406rae71llfgotbct.jpg","https://api.fiwfans.com/image_sideline/406rae7sxlfgosant.jpg"],"keep":false,"keep_id":null},{"id":"406rae7d8lfgv8mah","name":"มะลิ","created_at":"2023-03-20T13:31:50.000Z","area":"เกษรตนวมินทร์ เอเชียรีสอร์ท","sex":"female","age":26,"price":1300,"verify_image_status":null,"vaccine_covid_status":null,"province":"กรุงเทพมหานคร","district":"เขตบึงกุ่ม","images":["https://api.fiwfans.com/image_sideline/406rae7d8lfgv8mac.jpg","https://api.fiwfans.com/image_sideline/406rae7d8lfgv8mad.jpg","https://api.fiwfans.com/image_sideline/406rae7d8lfgv8mae.jpg","https://api.fiwfans.com/image_sideline/406rae7d8lfgv8maf.jpg","https://api.fiwfans.com/image_sideline/406rae7d8lfgv8mag.jpg"],"keep":false,"keep_id":null},{"id":"406rae1evlcrfceuw","name":"น้องพอมแพม","created_at":"2023-01-11T08:53:14.000Z","area":"รังสิต คลอง1","sex":"female","age":20,"price":1300,"verify_image_status":1,"vaccine_covid_status":null,"province":"ปทุมธานี","district":"ธัญบุรี","images":["https://api.fiwfans.com/image_sideline/406raeo4jleihqure.jpg","https://api.fiwfans.com/image_sideline/406raeo4jleihuhnp.jpg","https://api.fiwfans.com/image_sideline/406raeo4qleihqsz2.jpg","https://api.fiwfans.com/image_sideline/406raem30leihuj87.jpg"],"keep":false,"keep_id":null},{"id":"406rae3ggldr68u5g","name":"ฮันนี่ KD","created_at":"2023-02-05T09:18:13.000Z","area":"📍อโศก สุขุมวิท21 พร้อมพงศ์ นานา","sex":"female","age":22,"price":1300,"verify_image_status":1,"vaccine_covid_status":null,"province":"กรุงเทพมหานคร","district":"เขตวัฒนา","images":["https://api.fiwfans.com/image_sideline/406rae71llfgj5nln.jpg","https://api.fiwfans.com/image_sideline/406rae7djlfgj5ir1.jpg","https://api.fiwfans.com/image_sideline/406raeav3lebcpasi.jpg","https://api.fiwfans.com/image_sideline/406rae9z1leb4asjz.jpg"],"keep":false,"keep_id":null},{"id":"406raenjjl2jsfzz5","name":"แป้งฝุ่น AH","created_at":"2022-04-29T02:00:43.000Z","area":"BTSราชเทวี สยาม พญาไท","sex":"female","age":25,"price":1300,"verify_image_status":null,"vaccine_covid_status":null,"province":"กรุงเทพมหานคร","district":"เขตราชเทวี","images":["https://api.fiwfans.com/image_sideline/406raeckgleceym7v.jpg","https://api.fiwfans.com/image_sideline/406raecdoleceydle.jpg","https://api.fiwfans.com/image_sideline/406raeb1tlcfjmv3a.jpg","https://api.fiwfans.com/image_sideline/406raeckgleceyfj6.jpg","https://api.fiwfans.com/image_sideline/406raeck5leceyhuh.jpg","https://api.fiwfans.com/image_sideline/406raeckgleceyka5.jpg"],"keep":false,"keep_id":null},{"id":"406raejl0legu1x8x","name":"ยิปโซ 🚀 อมมิดทุกดอกเลียไข่ทั้งพวง","created_at":"2023-02-23T08:18:55.000Z","area":"เพชรเกษม","sex":"female","age":24,"price":999,"verify_image_status":1,"vaccine_covid_status":null,"province":"กรุงเทพมหานคร","district":"เขตภาษีเจริญ","images":["https://api.fiwfans.com/image_sideline/406rae28clfe518ck.jpg","https://api.fiwfans.com/image_sideline/406raez5lfcumbwf.jpg","https://api.fiwfans.com/image_sideline/406rae28clfe51dw6.jpg","https://api.fiwfans.com/image_sideline/406raejl0legu1x8s.jpg","https://api.fiwfans.com/image_sideline/406raejl0legu1x8v.jpg","https://api.fiwfans.com/image_sideline/406raejl0legu1x8u.jpg"],"keep":false,"keep_id":null},{"id":"406raeckgleccno2g","name":"จัสมิน ✨","created_at":"2023-02-20T05:00:52.000Z","area":"รัตนาธิเบศร์","sex":"female","age":23,"price":999,"verify_image_status":1,"vaccine_covid_status":null,"province":"นนทบุรี","district":"เมืองนนทบุรี","images":["https://api.fiwfans.com/image_sideline/406raeck5lecgcl63.jpg","https://api.fiwfans.com/image_sideline/406raeckgleccno2b.jpg","https://api.fiwfans.com/image_sideline/406raecbrlecgchgn.jpg","https://api.fiwfans.com/image_sideline/406raeck5lecgccdy.jpg","https://api.fiwfans.com/image_sideline/406raeck5lecgc9tf.jpg"],"keep":false,"keep_id":null},{"id":"406rae6lhl85r8x1i","name":"อุ๋งอิ๋ง","created_at":"2022-09-17T10:16:41.000Z","area":"รัตนาธิเบศร์,นนทบุรี,รัตนาธิเบศร์40","sex":"female","age":21,"price":1400,"verify_image_status":1,"vaccine_covid_status":null,"province":"นนทบุรี","district":"เมืองนนทบุรี","images":["https://api.fiwfans.com/image_sideline/406rae6lhl85r8x1f.jpg","https://api.fiwfans.com/image_sideline/406rae6lhl85r8x1g.jpg","https://api.fiwfans.com/image_sideline/406rae6lhl85r8x1h.jpg"],"keep":false,"keep_id":null},{"id":"406rad345krhh3p9t","name":"เหมย ","created_at":"2021-07-24T07:50:56.000Z","area":"บางนา - ศรีนครินทร์","sex":"female","age":21,"price":1000,"verify_image_status":1,"vaccine_covid_status":null,"province":"กรุงเทพมหานคร","district":"เขตบางนา","images":["https://api.fiwfans.com/image_sideline/406radkpukrxjydw9.jpg","https://api.fiwfans.com/image_sideline/406raeb5elf6dskds.jpg","https://api.fiwfans.com/image_sideline/406raeb5elf6dsgsl.jpg","https://api.fiwfans.com/image_sideline/406raeb4ilf6dtviw.jpg"],"keep":false,"keep_id":null},{"id":"406radbx2ktd1ya4r","name":"ไดน่า","created_at":"2021-09-09T14:55:09.000Z","area":"ตากสิน29","sex":"female","age":26,"price":1000,"verify_image_status":1,"vaccine_covid_status":1,"province":"กรุงเทพมหานคร","district":"เขตธนบุรี","images":["https://api.fiwfans.com/image_sideline/406raeodql4li06xk.jpg","https://api.fiwfans.com/image_sideline/406raeouwl4m4r7gp.jpg","https://api.fiwfans.com/image_sideline/406rae4tal4p0boku.jpg"],"keep":false,"keep_id":null},{"id":"406rae2gplb912f58","name":"โซเฟีย 🌵สาวน้อยขี้เย็ด","created_at":"2022-12-04T07:13:59.000Z","area":"รัตนาธิเบศร์","sex":"female","age":24,"price":999,"verify_image_status":1,"vaccine_covid_status":1,"province":"นนทบุรี","district":"เมืองนนทบุรี","images":["https://api.fiwfans.com/image_sideline/406raeda1lecvgtwm.jpg","https://api.fiwfans.com/image_sideline/406rae7dplcv3uyzy.jpg","https://api.fiwfans.com/image_sideline/406raegp7lbxs22hs.jpg","https://api.fiwfans.com/image_sideline/406raegpnlbxs3g28.jpg","https://api.fiwfans.com/image_sideline/406rae98ulcwpnv5q.jpg"],"keep":false,"keep_id":null}],"pagination":{"total":527,"lastPage":27,"perPage":20,"currentPage":"4","from":60,"to":80}}